<svg width="24" height="24" viewBox="0 0 24 24" fill="none" xmlns="http://www.w3.org/2000/svg">
<g clip-path="url(#clip0)">
<path d="M11.3354 7.51672L9.91482 10.9667C9.86667 11.0837 9.75729 11.1641 9.63129 11.1751L2.36514 11.8136C2.18686 11.8293 2.05157 11.9809 2.05623 12.1597L2.204 17.8634C2.20808 18.0202 2.31933 18.1537 2.47286 18.186L11.027 19.9853C11.2361 20.0293 11.4487 20.0511 11.6612 20.0506L11.6614 18.3591V7.58123C11.6613 7.11041 11.5146 7.08139 11.3354 7.51672ZM10.3407 18.1533L7.12945 17.6362V15.953H10.3407V18.1533ZM8.93655 10.3552L0.373254 11.2205C0.111646 11.247 -0.078981 10.9782 0.03247 10.7401L2.31267 5.86609C2.35906 5.76691 2.45055 5.69625 2.55823 5.67648L11.9674 3.94828L9.21204 10.1557C9.16271 10.2668 9.05757 10.343 8.93655 10.3552ZM21.6349 11.8136L14.3687 11.1752C14.2427 11.1641 14.1333 11.0837 14.0852 10.9667L12.6646 7.51676C12.4854 7.08139 12.3387 7.11041 12.3387 7.58123V18.359L12.3388 20.0506C12.5513 20.0511 12.7639 20.0293 12.9731 19.9853L21.5272 18.186C21.6807 18.1537 21.792 18.0202 21.796 17.8633L21.9438 12.1597C21.9485 11.9809 21.8131 11.8293 21.6349 11.8136ZM18.6446 14.8601L18.2433 14.8712L18.2352 17.397C18.2348 17.5082 18.1218 17.6146 17.9813 17.6348L17.3236 17.7294C17.1733 17.751 17.0504 17.674 17.0507 17.5572L17.0568 14.9042L16.5978 14.9169C16.3746 14.923 16.2334 14.7441 16.347 14.596L17.4386 13.1735C17.542 13.0387 17.7958 13.0511 17.8955 13.1931L18.8538 14.5588C18.9446 14.6883 18.8297 14.855 18.6446 14.8601ZM23.6267 11.2205L15.0634 10.3552C14.9424 10.343 14.8372 10.2668 14.7879 10.1557L12.0326 3.94824L21.4418 5.67644C21.5495 5.69621 21.6409 5.76687 21.6874 5.86605L23.9676 10.74C24.079 10.9782 23.8883 11.247 23.6267 11.2205Z" fill="#3F4D88"/>
</g>
<defs>
<clipPath id="clip0">
<rect width="24" height="24" fill="white"/>
</clipPath>
</defs>
</svg>
